{
   "NLaguerre":7,
   "NLegendre":2,
   "NSphere":38,
   "NGauss":16,
   "collModel":["zero","lxcat_e_ar_tot_elastic.IST"],
   "collParams":[0.0,1.0],
   "linCollModel":[],
   "linCollParams":[],
   "targetMass":[0.0,6.644e-26],
   "targetTemp":[],
   "xsQuad":false,
   "sourceModel":[],
   "sinkModel":[],
   "Ez":-0.01,
   "Efreq":0.0,
   "useLocalMatrixFile":false,
   "saveMatrixFile":true,
   "downloadMatrixFile":false,
   "Nout":10,
   "timeMethod":"euler",
   "dt":1.0e-8,
   "Ntime":10000000,
   "initDens":[1.0e20],
   "initTemp":[0.8e-19],
   "initVx":[0.0],
   "initVy":[0.0],
   "initVz":[0.0],
   "Tref":0.8e-19,
   "charge":-1.602e-19,
   "mass":9.109e-31,
   "sigref":1.0,
   "nNewtonIter":-1,
   "Nz":1,
   "Lz":40.0,
   "bndy_conds_z":["refl_diffuse","refl_diffuse"],
   "bndy_z_dens":[1.0e20,1.0e20],
   "bndy_z_Vx":[0.0,0.0],
   "bndy_z_Vy":[0.0,0.0],
   "bndy_z_Vz":[0.0,0.0],
   "bndy_z_temp":[1.3e-19,1.7e-19],
   "bndy_z_R":[1.0,1.0],
   "bndy_z_sourceflux":[0.0,0.0]
}

