0.005208 2.072391e+20 2.185007e+17 
0.020833 1.157541e+20 1.233118e+17 
0.036458 7.135971e+19 7.634094e+16 
0.052083 4.495191e+19 4.948946e+16 
0.067708 2.889050e+19 3.371254e+16 
0.083333 1.888861e+19 2.381319e+16 
0.098958 1.257698e+19 1.738006e+16 
0.114583 8.508968e+18 1.297095e+16 
0.130208 5.858281e+18 9.886271e+15 
0.145833 4.082750e+18 7.640301e+15 
0.161458 2.873516e+18 5.949724e+15 
0.177083 2.037079e+18 4.647653e+15 
0.192708 1.462471e+18 3.700499e+15 
0.208333 1.057109e+18 2.935749e+15 
0.223958 7.658570e+17 2.337886e+15 
0.239583 5.607388e+17 1.879956e+15 
0.255208 4.122886e+17 1.517643e+15 
0.270833 3.045564e+17 1.236576e+15 
0.286458 2.254102e+17 1.002270e+15 
0.302083 1.686589e+17 8.223151e+14 
0.317708 1.254597e+17 6.642934e+14 
0.333333 9.410260e+16 5.549481e+14 
0.348958 7.077230e+16 4.538488e+14 
0.364583 5.285398e+16 3.758794e+14 
0.380208 3.946267e+16 3.028265e+14 
0.395833 3.000597e+16 2.548750e+14 
0.411458 2.278377e+16 2.148858e+14 
0.427083 1.713810e+16 1.734772e+14 
0.442708 1.290624e+16 1.400781e+14 
0.458333 9.858156e+15 1.174864e+14 
0.473958 7.504810e+15 9.502742e+13 
0.489583 5.911095e+15 8.622365e+13 
0.505208 4.534348e+15 7.099624e+13 
0.520833 3.455236e+15 5.584865e+13 
0.536458 2.685856e+15 4.471477e+13 
0.552083 2.141485e+15 3.794827e+13 
0.567708 1.753319e+15 3.342470e+13 
0.583333 1.440495e+15 3.037981e+13 
0.598958 1.181539e+15 2.323894e+13 
0.614583 1.013614e+15 2.225936e+13 
0.630208 8.589316e+14 1.622461e+13 
0.645833 7.506396e+14 1.321387e+13 
0.661458 6.585505e+14 1.174957e+13 
0.677083 6.107338e+14 1.128987e+13 
0.692708 5.684556e+14 9.293962e+12 
0.708333 5.376877e+14 8.295393e+12 
0.723958 4.902960e+14 7.418617e+12 
0.739583 4.646104e+14 6.355132e+12 
0.755208 4.608699e+14 9.238683e+12 
0.770833 4.363612e+14 5.364440e+12 
0.786458 4.314233e+14 5.562027e+12 
0.802083 4.211955e+14 5.216966e+12 
0.817708 4.217994e+14 5.555591e+12 
0.833333 4.129860e+14 5.000917e+12 
0.848958 4.136765e+14 4.953452e+12 
0.864583 4.123247e+14 5.032498e+12 
0.880208 4.132077e+14 4.995505e+12 
0.895833 4.066322e+14 4.929735e+12 
0.911458 4.079782e+14 4.957000e+12 
0.927083 4.011046e+14 4.851614e+12 
0.942708 4.007140e+14 4.832804e+12 
0.958333 4.006542e+14 4.841922e+12 
0.973958 4.057468e+14 4.896767e+12 
0.989583 4.061639e+14 4.929709e+12 
1.005208 3.984522e+14 4.802109e+12 
1.020833 4.057484e+14 4.901878e+12 
1.036458 4.074248e+14 4.942610e+12 
1.052083 4.014496e+14 4.871354e+12 
1.067708 3.940580e+14 4.752880e+12 
1.083333 4.017856e+14 4.893884e+12 
1.098958 3.962492e+14 4.792594e+12 
1.114583 3.984513e+14 4.841114e+12 
1.130208 4.058077e+14 4.980997e+12 
1.145833 4.032310e+14 4.864797e+12 
1.161458 4.116941e+14 5.010349e+12 
1.177083 4.095709e+14 5.002462e+12 
1.192708 4.175522e+14 5.250741e+12 
1.208333 4.295330e+14 5.300365e+12 
1.223958 4.385688e+14 5.571966e+12 
1.239583 4.463046e+14 5.580619e+12 
1.255208 4.636725e+14 6.566927e+12 
1.270833 4.828559e+14 6.530790e+12 
1.286458 5.138624e+14 7.526311e+12 
1.302083 5.403158e+14 8.067468e+12 
1.317708 5.817406e+14 8.610741e+12 
1.333333 6.576888e+14 1.252143e+13 
1.348958 7.486417e+14 1.467383e+13 
1.364583 8.449840e+14 1.599383e+13 
1.380208 9.887570e+14 2.011483e+13 
1.395833 1.141716e+15 2.122235e+13 
1.411458 1.421350e+15 2.983314e+13 
1.427083 1.698315e+15 3.026657e+13 
1.442708 2.144281e+15 3.945563e+13 
1.458333 2.676282e+15 4.657691e+13 
1.473958 3.386759e+15 5.467283e+13 
1.489583 4.393344e+15 6.538425e+13 
1.505208 5.725075e+15 8.248953e+13 
1.520833 7.466912e+15 9.405234e+13 
1.536458 9.708288e+15 1.145107e+14 
1.552083 1.284009e+16 1.417703e+14 
1.567708 1.676235e+16 1.683341e+14 
1.583333 2.234816e+16 2.077407e+14 
1.598958 2.968020e+16 2.573261e+14 
1.614583 3.941885e+16 3.096966e+14 
1.630208 5.232190e+16 3.713577e+14 
1.645833 7.027235e+16 4.579668e+14 
1.661458 9.319942e+16 5.506189e+14 
1.677083 1.245466e+17 6.660765e+14 
1.692708 1.675883e+17 8.187764e+14 
1.708333 2.254081e+17 1.007378e+15 
1.723958 3.040034e+17 1.233812e+15 
1.739583 4.125919e+17 1.522320e+15 
1.755208 5.630408e+17 1.892198e+15 
1.770833 7.693072e+17 2.352845e+15 
1.786458 1.058386e+18 2.941372e+15 
1.802083 1.462424e+18 3.679610e+15 
1.817708 2.043160e+18 4.672261e+15 
1.833333 2.868474e+18 5.938431e+15 
1.848958 4.068665e+18 7.604798e+15 
1.864583 5.820621e+18 9.826772e+15 
1.880208 8.488268e+18 1.298448e+16 
1.895833 1.252348e+19 1.733592e+16 
1.911458 1.880973e+19 2.373454e+16 
1.927083 2.881720e+19 3.363797e+16 
1.942708 4.496623e+19 4.958050e+16 
1.958333 7.137617e+19 7.645767e+16 
1.973958 1.156048e+20 1.232720e+17 
1.989583 2.073992e+20 2.188507e+17 
